// Jest Snapshot v1, https://goo.gl/fbAQLP

exports[`buildTypeDefs() should create a simple type with NO filterable fields 1`] = `
"
    type Test {
      id: ID
      name: String
    }
    type Query {
      Test(id: ID!): Test
      allTests(page: Int, perPage: Int, sortField: String, sortOrder: String, filter: TestFilterInput): [Test]
      _allTestsMeta(page: Int, perPage: Int, sortField: String, sortOrder: String, filter: TestFilterInput): ListMetadata
    }
    input TestFilterInput {
    }

    type Mutation {
      createTest(data: TestCreateInput!): Test
      updateTest(id: ID!, data: TestEditInput!): Test
      deleteTest(id: ID!): Boolean
    }
    input TestEditInput {
      name: String
    }
    input TestCreateInput {
      name: String
    }
"
`;

exports[`buildTypeDefs() should create a simple type with Query types 1`] = `
"
    type Test {
      id: ID
      name: String
    }
    type Query {
      Test(id: ID!): Test
      allTests(page: Int, perPage: Int, sortField: String, sortOrder: String, filter: TestFilterInput): [Test]
      _allTestsMeta(page: Int, perPage: Int, sortField: String, sortOrder: String, filter: TestFilterInput): ListMetadata
    }
    input TestFilterInput {
      ids: [ID]
      name: String
      name_in: [String]
    }

    type Mutation {
      createTest(data: TestCreateInput!): Test
      updateTest(id: ID!, data: TestEditInput!): Test
      deleteTest(id: ID!): Boolean
    }
    input TestEditInput {
      name: String
    }
    input TestCreateInput {
      name: String
    }
"
`;
